…
J’importe ces rentabilités du fichier Excel fourni à l’aide du package
**readxl** et de sa fonction `read_xlsx()`.

``` r
library(tidyverse)
library(readxl)
(renta <- read_xlsx(
  "data.xlsx",
  sheet = "CreditVaR",
  skip = 1,
  col_names = c("Entreprise_1", "Entreprise_2")
))
```

    ## # A tibble: 261 × 2
    ##    Entreprise_1 Entreprise_2
    ##           <dbl>        <dbl>
    ##  1   -0.00796       0.00914 
    ##  2    0.0380        0.00668 
    ##  3   -0.00492      -0.0199  
    ##  4    0.0307        0.0158  
    ##  5    0.0000163    -0.0145  
    ##  6   -0.00651       0.000404
    ##  7   -0.00701       0.0151  
    ##  8   -0.00445      -0.0220  
    ##  9    0.00415      -0.00175 
    ## 10   -0.00994      -0.0134  
    ## # ℹ 251 more rows
…
