…
### 1.1 Importation

J’importe les données à l’aide du package **readxl**, qui gère les
fichiers Excel parfaitement (décimales, pourcentages, valeurs
manquantes), avec la fonction `read_xlsx()`.

``` r
library(readxl)
(lgd <- read_xlsx(
  "data.xlsx",
  sheet = "LGD"
))
```

    ## # A tibble: 2,700 × 3
    ##             LGD    CA Collateral
    ##           <dbl> <dbl> <chr>     
    ##  1 0.000497     142.  Unsecured 
    ##  2 0.0000000129  68.8 Unsecured 
    ##  3 0.999        155.  Unsecured 
    ##  4 0.000471      93.5 Unsecured 
    ##  5 0.000183      79.5 Unsecured 
    ##  6 0.0000772    111.  Unsecured 
    ##  7 0.675         94.9 Unsecured 
    ##  8 0.000218      99.6 Unsecured 
    ##  9 0.0181        84.0 Unsecured 
    ## 10 0.000754      85.4 Unsecured 
    ## # ℹ 2,690 more rows
…
